[gd_scene load_steps=5 format=2]

[ext_resource path="res://art/shrimp-right-01.png" type="Texture" id=1]
[ext_resource path="res://shrimp.gd" type="Script" id=2]

[sub_resource type="SpriteFrames" id=1]
animations = [ {
"frames": [ ExtResource( 1 ) ],
"loop": true,
"name": "right",
"speed": 5.0
} ]

[sub_resource type="CapsuleShape2D" id=2]
radius = 15.369
height = 26.9307

[node name="shrimp" type="KinematicBody2D"]
collision_layer = 8
script = ExtResource( 2 )

[node name="AnimatedSprite" type="AnimatedSprite" parent="."]
frames = SubResource( 1 )
animation = "right"

[node name="CollisionShape2D" type="CollisionShape2D" parent="."]
position = Vector2( 2.77795, -4.36536 )
rotation = 1.18682
shape = SubResource( 2 )
